\relax 
\providecommand\zref@newlabel[2]{}
\providecommand*\new@tpo@label[2]{}
\@writefile{toc}{\contentsline {section}{\numberline {1}Introducere}{3}}
\@writefile{toc}{\contentsline {section}{\numberline {2}Metodologii \IeC {\c s}i Tehnologii folosite \IeC {\^\i }n Testare Automat\IeC {\u a}}{4}}
\@writefile{toc}{\contentsline {subsection}{\numberline {2.1}Conceptul ciclului de testare}{4}}
\@writefile{lof}{\contentsline {figure}{\numberline {1}{\ignorespaces \textit  {Diagram\IeC {\u a} ce eviden\IeC {\c t}iaz\IeC {\u a} pa\IeC {\c s}ii parcur\IeC {\c s}i \IeC {\^\i }n cadrul ciclului de testare automat\IeC {\u a}}\relax }}{4}}
\providecommand*\caption@xref[2]{\@setref\relax\@undefined{#1}}
\newlabel{ASTM}{{1}{4}}
\@writefile{toc}{\contentsline {subsection}{\numberline {2.2}Metodologii}{6}}
\@writefile{toc}{\contentsline {subsubsection}{\numberline {2.2.1}TDD (Test Driven Development)}{6}}
\@writefile{toc}{\contentsline {subsubsection}{\numberline {2.2.2}BDD (Behaviour Driven Development)}{8}}
\@writefile{toc}{\contentsline {subsection}{\numberline {2.3}Tehnologii}{10}}
\@writefile{toc}{\contentsline {subsubsection}{\numberline {2.3.1}Selenium WebDriver}{10}}
\@writefile{toc}{\contentsline {subsubsection}{\numberline {2.3.2}RestAssured}{11}}
\@writefile{toc}{\contentsline {subsubsection}{\numberline {2.3.3}Cucumber JVM}{12}}
\@writefile{toc}{\contentsline {subsubsection}{\numberline {2.3.4}JUnit}{13}}
\@writefile{toc}{\contentsline {subsubsection}{\numberline {2.3.5}AssertJ}{13}}
\@writefile{toc}{\contentsline {section}{\numberline {3}Prezentarea Aplica\IeC {\c t}iei Practice \IeC {\^\i }n Testare}{14}}
\@writefile{toc}{\contentsline {subsection}{\numberline {3.1}Interfa\IeC {{\textcommabelow t}}\IeC {\u a}}{14}}
\@writefile{toc}{\contentsline {subsubsection}{\numberline {3.1.1}Autentificarea \IeC {\c s}i \IeC {\^\i }nregistrarea utilizatorilor}{14}}
\@writefile{lof}{\contentsline {figure}{\numberline {2}{\ignorespaces \textit  {Componenta de autentificare a unui utilizator}\relax }}{14}}
\newlabel{LoginScreen}{{2}{14}}
\@writefile{lof}{\contentsline {figure}{\numberline {3}{\ignorespaces \textit  {Componenta de \IeC {\^\i }nregistrare a unui utilizator}\relax }}{15}}
\newlabel{RegisterScreen}{{3}{15}}
\@writefile{lof}{\contentsline {figure}{\numberline {4}{\ignorespaces \textit  {Exemplu de mesaj de erorare ce poate fi prezentat utilizatorului}\relax }}{15}}
\newlabel{RegisterErrorScreen}{{4}{15}}
\@writefile{toc}{\contentsline {subsubsection}{\numberline {3.1.2}Profilul utilizatorului}{16}}
\@writefile{lof}{\contentsline {figure}{\numberline {5}{\ignorespaces \textit  {Profilul unui utilizator}\relax }}{16}}
\newlabel{ProfileScreen}{{5}{16}}
\@writefile{lof}{\contentsline {figure}{\numberline {6}{\ignorespaces \textit  {Detaliile profilului utilizatorului}\relax }}{16}}
\newlabel{ProfileDetailsScreen}{{6}{16}}
\@writefile{lof}{\contentsline {figure}{\numberline {7}{\ignorespaces \textit  {Editarea descrierii}\relax }}{16}}
\newlabel{EditDetailsScreen}{{7}{16}}
\@writefile{toc}{\contentsline {paragraph}{\numberline {3.1.2.1}Post\IeC {\u a}ri de mesaje}{17}}
\@writefile{lof}{\contentsline {figure}{\numberline {8}{\ignorespaces \textit  {Componenta de ad\IeC {\u a}ugare a unui mesaj}\relax }}{17}}
\newlabel{TweetPostScreen}{{8}{17}}
\@writefile{lof}{\contentsline {figure}{\numberline {9}{\ignorespaces \textit  {Exemplu de mesaj prezentat utilizatorului c\IeC {\^a}nd nu are creat niciun mesaj}\relax }}{17}}
\newlabel{NoTweetsScreen}{{9}{17}}
\@writefile{lof}{\contentsline {figure}{\numberline {10}{\ignorespaces \textit  {Exemplu de list\IeC {\u a} cu mesaje deja create de utilizator sau cei care sunt urm\IeC {\u a}ri\IeC {{\textcommabelow t}}i de acesta}\relax }}{17}}
\newlabel{TweetsScreen}{{10}{17}}
\@writefile{toc}{\contentsline {paragraph}{\numberline {3.1.2.2}Urm\IeC {\u a}rirea altor utilizatori}{18}}
\@writefile{lof}{\contentsline {figure}{\numberline {11}{\ignorespaces \textit  {List\IeC {\u a} de utilizatori ce urm\IeC {\u a}resc un profil}\relax }}{18}}
\newlabel{FollowerComponent}{{11}{18}}
\@writefile{toc}{\contentsline {subsubsection}{\numberline {3.1.3}C\IeC {\u a}utare utilizatori \IeC {\c s}i post\IeC {\u a}ri}{18}}
\@writefile{lof}{\contentsline {figure}{\numberline {12}{\ignorespaces \textit  {Componenta de c\IeC {\u a}utare. Starea ini\IeC {\c t}ial\IeC {\u a} a componente con\IeC {\c t}ine un text \IeC {\^\i }nlocuitor pentru a explica func\IeC {\c t}ionalitatea.}\relax }}{18}}
\newlabel{SearchComponent}{{12}{18}}
\@writefile{lof}{\contentsline {figure}{\numberline {13}{\ignorespaces \textit  {Exemplu de rezultat al unei c\IeC {\u a}ut\IeC {\u a}ri}\relax }}{19}}
\newlabel{SearchResultsComponent}{{13}{19}}
\@writefile{toc}{\contentsline {subsubsection}{\numberline {3.1.4}Bara de navigare}{19}}
\@writefile{lof}{\contentsline {figure}{\numberline {14}{\ignorespaces \textit  {Bara de navigare}\relax }}{19}}
\newlabel{SearchResultsComponent}{{14}{19}}
\@writefile{toc}{\contentsline {subsection}{\numberline {3.2}Server}{20}}
\@writefile{toc}{\contentsline {section}{\numberline {4}Analiza Aplica\IeC {\c t}iei \IeC {\^\i }n Contextul Test\IeC {\u a}rii}{24}}
\@writefile{toc}{\contentsline {subsection}{\numberline {4.1}Arhitectura aplica\IeC {{\textcommabelow t}}iei web}{24}}
\@writefile{toc}{\contentsline {subsubsection}{\numberline {4.1.1}Baza de Date}{24}}
\@writefile{lof}{\contentsline {figure}{\numberline {15}{\ignorespaces \textit  {Pentru a avea o \IeC {\^\i }n\IeC {{\textcommabelow t}}elege mai ampl\IeC {\u a} asupra structurii bazei de date, mai sus poate fi g\IeC {\u a}sit\IeC {\u a} o structur\IeC {\u a} UML (Universal Modeling Language).}\relax }}{26}}
\newlabel{DBSchema}{{15}{26}}
\@writefile{toc}{\contentsline {subsubsection}{\numberline {4.1.2}Servicii}{27}}
\@writefile{toc}{\contentsline {subsection}{\numberline {4.2}Arhitectura libr\IeC {\u a}riei de testare}{29}}
\@writefile{toc}{\contentsline {subsection}{\numberline {4.3}Teste specifice pentru verificarea interfe\IeC {\c t}ei web}{29}}
\@writefile{toc}{\contentsline {subsection}{\numberline {4.4}Teste specifice pentru verificarea serverului}{29}}
\@writefile{toc}{\contentsline {subsection}{\numberline {4.5}Rapoarte create pe baza execu\IeC {\c t}iei testelor}{29}}
\@writefile{toc}{\contentsline {section}{\numberline {5}Concluzie privind Stadiul Actual al Industriei}{30}}
\bibdata{sample}
\bibstyle{unsrt}
\bibcite{methodology}{1}
\bibcite{methodology}{2}
\gdef\minted@oldcachelist{,
  default-pyg-prefix.pygstyle,
  default.pygstyle,
  CE6945C940EDD1D816B229D0B51AFB649D5F2294DCA204BFE0313870329E2CEC.pygtex,
  E891962C50494826B0CA48BB7ADD64586657AC7332F0D828C693D71E0FFF43E5.pygtex,
  546239972B2CF7FDB9641446E92E77409D5F2294DCA204BFE0313870329E2CEC.pygtex,
  293CD9D722E5E7DC58C4CB22DA7CFA096657AC7332F0D828C693D71E0FFF43E5.pygtex,
  52E794C568B0D149F979FAC7682E9CAE9D5F2294DCA204BFE0313870329E2CEC.pygtex,
  BFF449EF3E9ECACBBB84D465E582E2A59D5F2294DCA204BFE0313870329E2CEC.pygtex,
  7B44B9D97928A91D2E807E14C48872A79D5F2294DCA204BFE0313870329E2CEC.pygtex,
  D17F1EC735927FD04508A14E1EC698779D5F2294DCA204BFE0313870329E2CEC.pygtex,
  9E822EAC24907C156DC4EBF84BAD48D29D5F2294DCA204BFE0313870329E2CEC.pygtex,
  238CCD50F6AB355145F1BA79EB82BC069D5F2294DCA204BFE0313870329E2CEC.pygtex}
\@writefile{toc}{\contentsline {section}{Bibliografie}{31}}
